ROY_AUTOSYNTHESYS/Roy_autosynthesys_tb.vcd
$date
	Thu Sep 19 17:25:02 2024
$end
$version
	Icarus Verilog
$end
$timescale
	1s
$end
$scope module Roy_autosynthesys_tb $end
$var wire 4 ! X [3:0] $end
$var wire 1 " Cout $end
$var reg 4 # A [3:0] $end
$var reg 4 $ B [3:0] $end
$scope module UUT $end
$var wire 4 % A [3:0] $end
$var wire 4 & B [3:0] $end
$var wire 1 " Cout $end
$var wire 1 ' X3 $end
$var wire 4 ( X1 [3:0] $end
$var wire 4 ) X [3:0] $end
$var wire 4 * P [3:0] $end
$var wire 1 + H__2 $end
$var wire 1 , H__1 $end
$var wire 4 - H1 [3:0] $end
$var wire 4 . H [3:0] $end
$var parameter 32 / N $end
$scope module I1 $end
$var wire 1 0 A $end
$var wire 1 1 B $end
$var wire 1 2 H $end
$var wire 1 3 P $end
$upscope $end
$scope module I10 $end
$var wire 1 4 H_0 $end
$var wire 1 5 X $end
$var wire 1 6 X_0 $end
$var wire 1 7 X_1 $end
$var wire 1 8 w1 $end
$upscope $end
$scope module I11 $end
$var wire 1 + H $end
$var wire 1 9 H_0 $end
$var wire 1 : H_1 $end
$var wire 1 ' X $end
$var wire 1 ; X_0 $end
$var wire 1 < X_1 $end
$var wire 1 = w1 $end
$upscope $end
$scope module I12 $end
$var wire 1 + H_0 $end
$var wire 1 > X $end
$var wire 1 ' X_0 $end
$var wire 1 ? X_1 $end
$var wire 1 @ w1 $end
$upscope $end
$scope module I2 $end
$var wire 1 A A $end
$var wire 1 B B $end
$var wire 1 C H $end
$var wire 1 D P $end
$upscope $end
$scope module I3 $end
$var wire 1 E A $end
$var wire 1 F B $end
$var wire 1 G H $end
$var wire 1 H P $end
$upscope $end
$scope module I4 $end
$var wire 1 I A $end
$var wire 1 J B $end
$var wire 1 K H $end
$var wire 1 L P $end
$upscope $end
$scope module I5 $end
$var wire 1 , H $end
$var wire 1 M H_0 $end
$var wire 1 N H_1 $end
$var wire 1 O P_1 $end
$var wire 1 P X $end
$upscope $end
$scope module I6 $end
$var wire 1 Q H $end
$var wire 1 R H_0 $end
$var wire 1 S H_1 $end
$var wire 1 T P_1 $end
$var wire 1 U X $end
$upscope $end
$scope module I7 $end
$var wire 1 V H $end
$var wire 1 W H_0 $end
$var wire 1 X H_1 $end
$var wire 1 Y P_1 $end
$var wire 1 Z X $end
$upscope $end
$scope module I8 $end
$var wire 1 [ H $end
$var wire 1 \ H_0 $end
$var wire 1 ] H_1 $end
$var wire 1 ^ P_1 $end
$var wire 1 _ X $end
$upscope $end
$scope module I9 $end
$var wire 1 ` H_0 $end
$var wire 1 a X $end
$var wire 1 b X_0 $end
$var wire 1 c X_1 $end
$var wire 1 d w1 $end
$upscope $end
$upscope $end
$upscope $end
$enddefinitions $end
$comment Show the parameter values. $end
$dumpall
b100 /
$end
#0
$dumpvars
0d
0c
0b
0a
0`
0_
0^
0]
0\
0[
0Z
0Y
0X
0W
0V
0U
0T
0S
0R
0Q
0P
0O
0N
0M
0L
0K
0J
0I
0H
0G
0F
0E
0D
0C
0B
0A
0@
0?
0>
0=
0<
0;
0:
09
08
07
06
05
04
03
02
01
00
b0 .
bz000 -
0,
0+
b0 *
b0 )
b0z (
0'
b0 &
b0 %
b0 $
b0 #
0"
b0 !
$end
#10
1d
1b
1c
b1z (
1U
b1 !
b1 )
1P
1`
1T
1M
bz001 -
1Q
1S
b1 *
13
b1 .
12
10
b1 #
b1 %
#20
18
1?
17
05
b11 !
b11 )
1a
16
1<
0b
1Z
b10z (
0U
14
1Y
1R
bz011 -
1V
1X
1:
b11 *
1D
b11 .
1C
00
1A
11
b10 #
b10 %
b1 $
b1 &
#30
15
08
0?
07
0a
0c
0d
b100 !
b100 )
0P
0`
0M
bz010 -
0Q
0S
b10 .
02
10
b11 #
b11 %
#40
1@
18
1?
17
15
0>
b110 !
b110 )
1a
1;
06
0<
1'
1b
1_
0Z
0=
1+
b101z (
1U
1^
1W
bz110 -
1[
1]
19
0T
1H
b110 .
1G
b110 *
03
00
0A
1E
01
1B
b100 #
b100 %
b10 $
b10 &
#50
1d
0b
1c
b100z (
0U
b111 !
b111 )
1P
1`
1T
1M
bz111 -
1Q
1S
b111 *
13
b111 .
12
10
b101 #
b101 %
#60
0?
07
0a
05
b1001 !
b1001 )
1>
1b
08
0@
b101z (
1U
04
0+
0R
bz101 -
0V
0X
0:
b101 .
0C
00
1A
11
b110 #
b110 %
b11 $
b11 &
#70
1?
17
1a
0c
0d
b1010 !
b1010 )
0P
0`
0M
bz100 -
0Q
0S
b100 .
02
10
b111 #
b111 %
#80
0?
07
0a
b1100 !
b1100 )
15
1=
0;
0b
16
1<
0_
0U
b10z (
1Z
1\
0T
0Y
1L
b1100 .
1K
03
b1100 *
0D
00
0A
0E
1I
01
0B
1F
b1000 #
b1000 %
b100 $
b100 &
#90
1d
1b
1c
b11z (
1U
b1101 !
b1101 )
1P
1`
1T
1M
bz101 -
1Q
1S
b1101 *
13
b1101 .
12
10
b1001 #
b1001 %
#100
1@
18
0'
1?
17
15
0=
b1111 !
b1111 )
1a
06
0<
0b
0Z
b0z (
0U
14
1+
1Y
1R
bz111 -
1V
1X
1:
b1111 *
1D
b1111 .
1C
00
1A
11
b1010 #
b1010 %
b101 $
b101 &
#110
1"
0>
05
0@
08
0?
07
0a
0c
0d
b0 !
b0 )
0P
0`
0M
bz110 -
0Q
0S
b1110 .
02
10
b1011 #
b1011 %
#120
18
1?
17
05
b10 !
b10 )
1a
16
1<
1b
1Z
0+
b11z (
1U
0W
bz010 -
0[
0]
09
0T
b1010 .
0G
b1110 *
03
00
0A
1E
01
1B
b1100 #
b1100 %
b110 $
b110 &
#130
1d
0b
1c
b10z (
0U
b11 !
b11 )
1P
1`
1T
1M
bz011 -
1Q
1S
b1111 *
13
b1011 .
12
10
b1101 #
b1101 %
#140
0?
07
0a
b101 !
b101 )
15
1b
08
b11z (
1U
04
0R
bz001 -
0V
0X
0:
b1001 .
0C
00
1A
11
b1110 #
b1110 %
b111 $
b111 &
#150
1?
17
1a
0c
0d
b110 !
b110 )
0P
0`
0M
bz000 -
0Q
0S
b1000 .
02
10
b1111 #
b1111 %
#160
0"
0?
07
1>
0a
b1000 !
b1000 )
05
1'
0b
06
0<
1;
0U
0Z
b100z (
1_
0T
0Y
0^
03
0D
b1000 *
0H
00
0A
0E
0I
01
0B
0F
1J
b0 #
b0 %
b1000 $
b1000 &
#170
1d
1b
1c
b101z (
1U
b1001 !
b1001 )
1P
1`
1T
1M
bz001 -
1Q
1S
b1001 *
13
b1001 .
12
10
b1 #
b1 %
#180
18
1?
17
05
b1011 !
b1011 )
1a
16
1<
0b
1Z
b110z (
0U
14
1Y
1R
bz011 -
1V
1X
1:
b1011 *
1D
b1011 .
1C
00
1A
11
b10 #
b10 %
b1001 $
b1001 &
#190
15
08
0?
07
0a
0c
0d
b1100 !
b1100 )
0P
0`
0M
bz010 -
0Q
0S
b1010 .
02
10
b11 #
b11 %
#200
0"
1@
18
1?
17
15
1>
b1110 !
b1110 )
1a
0;
06
0<
0'
1b
0_
0Z
0=
1+
b1z (
1U
1^
1W
bz110 -
1[
1]
19
0T
1H
b1110 .
1G
b1110 *
03
00
0A
1E
01
1B
b100 #
b100 %
b1010 $
b1010 &
#210
1d
0b
1c
b0z (
0U
b1111 !
b1111 )
1P
1`
1T
1M
bz111 -
1Q
1S
b1111 *
13
b1111 .
12
10
b101 #
b101 %
#220
1"
0?
07
0a
05
b1 !
b1 )
0>
1b
08
0@
b1z (
1U
04
0+
0R
bz101 -
0V
0X
0:
b1101 .
0C
00
1A
11
b110 #
b110 %
b1011 $
b1011 &
#230
1?
17
1a
0c
0d
b10 !
b10 )
0P
0`
0M
bz100 -
0Q
0S
b1100 .
02
10
b111 #
b111 %
#240
0?
07
0a
b100 !
b100 )
15
1=
1;
0b
16
1<
1_
0U
b110z (
1Z
0\
0T
0Y
b100 .
0K
03
b1100 *
0D
00
0A
0E
1I
01
0B
1F
b1000 #
b1000 %
b1100 $
b1100 &
#250
1d
1b
1c
b111z (
1U
b101 !
b101 )
1P
1`
1T
1M
bz101 -
1Q
1S
b1101 *
13
b101 .
12
10
b1001 #
b1001 %
#260
1@
18
1'
1?
17
15
0=
b111 !
b111 )
1a
06
0<
0b
0Z
b100z (
0U
14
1+
1Y
1R
bz111 -
1V
1X
1:
b1111 *
1D
b111 .
1C
00
1A
11
b1010 #
b1010 %
b1101 $
b1101 &
#270
1>
05
0@
08
0?
07
0a
0c
0d
b1000 !
b1000 )
0P
0`
0M
bz110 -
0Q
0S
b110 .
02
10
b1011 #
b1011 %
#280
18
1?
17
05
b1010 !
b1010 )
1a
16
1<
1b
1Z
0+
b111z (
1U
0W
bz010 -
0[
0]
09
0T
b10 .
0G
b1110 *
03
00
0A
1E
01
1B
b1100 #
b1100 %
b1110 $
b1110 &
#290
1d
0b
1c
b110z (
0U
b1011 !
b1011 )
1P
1`
1T
1M
bz011 -
1Q
1S
b1111 *
13
b11 .
12
10
b1101 #
b1101 %
#300
0?
07
0a
b1101 !
b1101 )
15
1b
08
b111z (
1U
04
0R
bz001 -
0V
0X
0:
b1 .
0C
00
1A
11
b1110 #
b1110 %
b1111 $
b1111 &
#310
1?
17
1a
0c
0d
b1110 !
b1110 )
0P
0`
0M
bz000 -
0Q
0S
b0 .
02
10
b1111 #
b1111 %
#320
0?
07
0>
0a
b0 !
b0 )
05
0'
0b
06
0<
0;
0U
0Z
b0z (
0_
0"
0T
0Y
0^
03
0D
0H
b0 *
0L
00
0A
0E
0I
01
0B
0F
0J
b0 #
b0 %
b0 $
b0 &
#330
1d
1b
1c
b1z (
1U
b1 !
b1 )
1P
1`
1T
1M
bz001 -
1Q
1S
b1 *
13
b1 .
12
10
b1 #
b1 %
#340
18
1?
17
05
b11 !
b11 )
1a
16
1<
0b
1Z
b10z (
0U
14
1Y
1R
bz011 -
1V
1X
1:
b11 *
1D
b11 .
1C
00
1A
11
b10 #
b10 %
b1 $
b1 &
#350
15
08
0?
07
0a
0c
0d
b100 !
b100 )
0P
0`
0M
bz010 -
0Q
0S
b10 .
02
10
b11 #
b11 %
#360
1@
18
1?
17
15
0>
b110 !
b110 )
1a
1;
06
0<
1'
1b
1_
0Z
0=
1+
b101z (
1U
1^
1W
bz110 -
1[
1]
19
0T
1H
b110 .
1G
b110 *
03
00
0A
1E
01
1B
b100 #
b100 %
b10 $
b10 &
#370
1d
0b
1c
b100z (
0U
b111 !
b111 )
1P
1`
1T
1M
bz111 -
1Q
1S
b111 *
13
b111 .
12
10
b101 #
b101 %
#380
0?
07
0a
05
b1001 !
b1001 )
1>
1b
08
0@
b101z (
1U
04
0+
0R
bz101 -
0V
0X
0:
b101 .
0C
00
1A
11
b110 #
b110 %
b11 $
b11 &
#390
1?
17
1a
0c
0d
b1010 !
b1010 )
0P
0`
0M
bz100 -
0Q
0S
b100 .
02
10
b111 #
b111 %
#400
0?
07
0a
b1100 !
b1100 )
15
1=
0;
0b
16
1<
0_
0U
b10z (
1Z
1\
0T
0Y
1L
b1100 .
1K
03
b1100 *
0D
00
0A
0E
1I
01
0B
1F
b1000 #
b1000 %
b100 $
b100 &
#410
1d
1b
1c
b11z (
1U
b1101 !
b1101 )
1P
1`
1T
1M
bz101 -
1Q
1S
b1101 *
13
b1101 .
12
10
b1001 #
b1001 %
#420
1@
18
0'
1?
17
15
0=
b1111 !
b1111 )
1a
06
0<
0b
0Z
b0z (
0U
14
1+
1Y
1R
bz111 -
1V
1X
1:
b1111 *
1D
b1111 .
1C
00
1A
11
b1010 #
b1010 %
b101 $
b101 &
#430
1"
0>
05
0@
08
0?
07
0a
0c
0d
b0 !
b0 )
0P
0`
0M
bz110 -
0Q
0S
b1110 .
02
10
b1011 #
b1011 %
#440
18
1?
17
05
b10 !
b10 )
1a
16
1<
1b
1Z
0+
b11z (
1U
0W
bz010 -
0[
0]
09
0T
b1010 .
0G
b1110 *
03
00
0A
1E
01
1B
b1100 #
b1100 %
b110 $
b110 &
#450
1d
0b
1c
b10z (
0U
b11 !
b11 )
1P
1`
1T
1M
bz011 -
1Q
1S
b1111 *
13
b1011 .
12
10
b1101 #
b1101 %
#460
0?
07
0a
b101 !
b101 )
15
1b
08
b11z (
1U
04
0R
bz001 -
0V
0X
0:
b1001 .
0C
00
1A
11
b1110 #
b1110 %
b111 $
b111 &
#470
1?
17
1a
0c
0d
b110 !
b110 )
0P
0`
0M
bz000 -
0Q
0S
b1000 .
02
10
b1111 #
b1111 %
#480
0"
0?
07
1>
0a
b1000 !
b1000 )
05
1'
0b
06
0<
1;
0U
0Z
b100z (
1_
0T
0Y
0^
03
0D
b1000 *
0H
00
0A
0E
0I
01
0B
0F
1J
b0 #
b0 %
b1000 $
b1000 &
#490
1d
1b
1c
b101z (
1U
b1001 !
b1001 )
1P
1`
1T
1M
bz001 -
1Q
1S
b1001 *
13
b1001 .
12
10
b1 #
b1 %
#500
18
1?
17
05
b1011 !
b1011 )
1a
16
1<
0b
1Z
b110z (
0U
14
1Y
1R
bz011 -
1V
1X
1:
b1011 *
1D
b1011 .
1C
00
1A
11
b10 #
b10 %
b1001 $
b1001 &
#510
15
08
0?
07
0a
0c
0d
b1100 !
b1100 )
0P
0`
0M
bz010 -
0Q
0S
b1010 .
02
10
b11 #
b11 %
#520
0"
1@
18
1?
17
15
1>
b1110 !
b1110 )
1a
0;
06
0<
0'
1b
0_
0Z
0=
1+
b1z (
1U
1^
1W
bz110 -
1[
1]
19
0T
1H
b1110 .
1G
b1110 *
03
00
0A
1E
01
1B
b100 #
b100 %
b1010 $
b1010 &
#530
1d
0b
1c
b0z (
0U
b1111 !
b1111 )
1P
1`
1T
1M
bz111 -
1Q
1S
b1111 *
13
b1111 .
12
10
b101 #
b101 %
#540
1"
0?
07
0a
05
b1 !
b1 )
0>
1b
08
0@
b1z (
1U
04
0+
0R
bz101 -
0V
0X
0:
b1101 .
0C
00
1A
11
b110 #
b110 %
b1011 $
b1011 &
#550
1?
17
1a
0c
0d
b10 !
b10 )
0P
0`
0M
bz100 -
0Q
0S
b1100 .
02
10
b111 #
b111 %
#560
0?
07
0a
b100 !
b100 )
15
1=
1;
0b
16
1<
1_
0U
b110z (
1Z
0\
0T
0Y
b100 .
0K
03
b1100 *
0D
00
0A
0E
1I
01
0B
1F
b1000 #
b1000 %
b1100 $
b1100 &
#570
1d
1b
1c
b111z (
1U
b101 !
b101 )
1P
1`
1T
1M
bz101 -
1Q
1S
b1101 *
13
b101 .
12
10
b1001 #
b1001 %
#580
1@
18
1'
1?
17
15
0=
b111 !
b111 )
1a
06
0<
0b
0Z
b100z (
0U
14
1+
1Y
1R
bz111 -
1V
1X
1:
b1111 *
1D
b111 .
1C
00
1A
11
b1010 #
b1010 %
b1101 $
b1101 &
#590
1>
05
0@
08
0?
07
0a
0c
0d
b1000 !
b1000 )
0P
0`
0M
bz110 -
0Q
0S
b110 .
02
10
b1011 #
b1011 %
#600
18
1?
17
05
b1010 !
b1010 )
1a
16
1<
1b
1Z
0+
b111z (
1U
0W
bz010 -
0[
0]
09
0T
b10 .
0G
b1110 *
03
00
0A
1E
01
1B
b1100 #
b1100 %
b1110 $
b1110 &
#610
1d
0b
1c
b110z (
0U
b1011 !
b1011 )
1P
1`
1T
1M
bz011 -
1Q
1S
b1111 *
13
b11 .
12
10
b1101 #
b1101 %
#620
0?
07
0a
b1101 !
b1101 )
15
1b
08
b111z (
1U
04
0R
bz001 -
0V
0X
0:
b1 .
0C
00
1A
11
b1110 #
b1110 %
b1111 $
b1111 &
#630
1?
17
1a
0c
0d
b1110 !
b1110 )
0P
0`
0M
bz000 -
0Q
0S
b0 .
02
10
b1111 #
b1111 %
#640
0?
07
0>
0a
b0 !
b0 )
05
0'
0b
06
0<
0;
0U
0Z
b0z (
0_
0"
0T
0Y
0^
03
0D
0H
b0 *
0L
00
0A
0E
0I
01
0B
0F
0J
b0 #
b0 %
b0 $
b0 &
#650
1d
1b
1c
b1z (
1U
b1 !
b1 )
1P
1`
1T
1M
bz001 -
1Q
1S
b1 *
13
b1 .
12
10
b1 #
b1 %
#660
18
1?
17
05
b11 !
b11 )
1a
16
1<
0b
1Z
b10z (
0U
14
1Y
1R
bz011 -
1V
1X
1:
b11 *
1D
b11 .
1C
00
1A
11
b10 #
b10 %
b1 $
b1 &
#670
15
08
0?
07
0a
0c
0d
b100 !
b100 )
0P
0`
0M
bz010 -
0Q
0S
b10 .
02
10
b11 #
b11 %
#680
1@
18
1?
17
15
0>
b110 !
b110 )
1a
1;
06
0<
1'
1b
1_
0Z
0=
1+
b101z (
1U
1^
1W
bz110 -
1[
1]
19
0T
1H
b110 .
1G
b110 *
03
00
0A
1E
01
1B
b100 #
b100 %
b10 $
b10 &
#690
1d
0b
1c
b100z (
0U
b111 !
b111 )
1P
1`
1T
1M
bz111 -
1Q
1S
b111 *
13
b111 .
12
10
b101 #
b101 %
#700
0?
07
0a
05
b1001 !
b1001 )
1>
1b
08
0@
b101z (
1U
04
0+
0R
bz101 -
0V
0X
0:
b101 .
0C
00
1A
11
b110 #
b110 %
b11 $
b11 &
#710
1?
17
1a
0c
0d
b1010 !
b1010 )
0P
0`
0M
bz100 -
0Q
0S
b100 .
02
10
b111 #
b111 %
#720
0?
07
0a
b1100 !
b1100 )
15
1=
0;
0b
16
1<
0_
0U
b10z (
1Z
1\
0T
0Y
1L
b1100 .
1K
03
b1100 *
0D
00
0A
0E
1I
01
0B
1F
b1000 #
b1000 %
b100 $
b100 &
#730
1d
1b
1c
b11z (
1U
b1101 !
b1101 )
1P
1`
1T
1M
bz101 -
1Q
1S
b1101 *
13
b1101 .
12
10
b1001 #
b1001 %
#740
1@
18
0'
1?
17
15
0=
b1111 !
b1111 )
1a
06
0<
0b
0Z
b0z (
0U
14
1+
1Y
1R
bz111 -
1V
1X
1:
b1111 *
1D
b1111 .
1C
00
1A
11
b1010 #
b1010 %
b101 $
b101 &
#750
1"
0>
05
0@
08
0?
07
0a
0c
0d
b0 !
b0 )
0P
0`
0M
bz110 -
0Q
0S
b1110 .
02
10
b1011 #
b1011 %
#760
18
1?
17
05
b10 !
b10 )
1a
16
1<
1b
1Z
0+
b11z (
1U
0W
bz010 -
0[
0]
09
0T
b1010 .
0G
b1110 *
03
00
0A
1E
01
1B
b1100 #
b1100 %
b110 $
b110 &
#770
1d
0b
1c
b10z (
0U
b11 !
b11 )
1P
1`
1T
1M
bz011 -
1Q
1S
b1111 *
13
b1011 .
12
10
b1101 #
b1101 %
#780
0?
07
0a
b101 !
b101 )
15
1b
08
b11z (
1U
04
0R
bz001 -
0V
0X
0:
b1001 .
0C
00
1A
11
b1110 #
b1110 %
b111 $
b111 &
#790
1?
17
1a
0c
0d
b110 !
b110 )
0P
0`
0M
bz000 -
0Q
0S
b1000 .
02
10
b1111 #
b1111 %
#800
0"
0?
07
1>
0a
b1000 !
b1000 )
05
1'
0b
06
0<
1;
0U
0Z
b100z (
1_
0T
0Y
0^
03
0D
b1000 *
0H
00
0A
0E
0I
01
0B
0F
1J
b0 #
b0 %
b1000 $
b1000 &
#810
1d
1b
1c
b101z (
1U
b1001 !
b1001 )
1P
1`
1T
1M
bz001 -
1Q
1S
b1001 *
13
b1001 .
12
10
b1 #
b1 %
#820
18
1?
17
05
b1011 !
b1011 )
1a
16
1<
0b
1Z
b110z (
0U
14
1Y
1R
bz011 -
1V
1X
1:
b1011 *
1D
b1011 .
1C
00
1A
11
b10 #
b10 %
b1001 $
b1001 &
#830
15
08
0?
07
0a
0c
0d
b1100 !
b1100 )
0P
0`
0M
bz010 -
0Q
0S
b1010 .
02
10
b11 #
b11 %
#840
0"
1@
18
1?
17
15
1>
b1110 !
b1110 )
1a
0;
06
0<
0'
1b
0_
0Z
0=
1+
b1z (
1U
1^
1W
bz110 -
1[
1]
19
0T
1H
b1110 .
1G
b1110 *
03
00
0A
1E
01
1B
b100 #
b100 %
b1010 $
b1010 &
#850
1d
0b
1c
b0z (
0U
b1111 !
b1111 )
1P
1`
1T
1M
bz111 -
1Q
1S
b1111 *
13
b1111 .
12
10
b101 #
b101 %
#860
1"
0?
07
0a
05
b1 !
b1 )
0>
1b
08
0@
b1z (
1U
04
0+
0R
bz101 -
0V
0X
0:
b1101 .
0C
00
1A
11
b110 #
b110 %
b1011 $
b1011 &
#870
1?
17
1a
0c
0d
b10 !
b10 )
0P
0`
0M
bz100 -
0Q
0S
b1100 .
02
10
b111 #
b111 %
#880
0?
07
0a
b100 !
b100 )
15
1=
1;
0b
16
1<
1_
0U
b110z (
1Z
0\
0T
0Y
b100 .
0K
03
b1100 *
0D
00
0A
0E
1I
01
0B
1F
b1000 #
b1000 %
b1100 $
b1100 &
#890
1d
1b
1c
b111z (
1U
b101 !
b101 )
1P
1`
1T
1M
bz101 -
1Q
1S
b1101 *
13
b101 .
12
10
b1001 #
b1001 %
#900
1@
18
1'
1?
17
15
0=
b111 !
b111 )
1a
06
0<
0b
0Z
b100z (
0U
14
1+
1Y
1R
bz111 -
1V
1X
1:
b1111 *
1D
b111 .
1C
00
1A
11
b1010 #
b1010 %
b1101 $
b1101 &
#910
1>
05
0@
08
0?
07
0a
0c
0d
b1000 !
b1000 )
0P
0`
0M
bz110 -
0Q
0S
b110 .
02
10
b1011 #
b1011 %
#920
18
1?
17
05
b1010 !
b1010 )
1a
16
1<
1b
1Z
0+
b111z (
1U
0W
bz010 -
0[
0]
09
0T
b10 .
0G
b1110 *
03
00
0A
1E
01
1B
b1100 #
b1100 %
b1110 $
b1110 &
#930
1d
0b
1c
b110z (
0U
b1011 !
b1011 )
1P
1`
1T
1M
bz011 -
1Q
1S
b1111 *
13
b11 .
12
10
b1101 #
b1101 %
#940
0?
07
0a
b1101 !
b1101 )
15
1b
08
b111z (
1U
04
0R
bz001 -
0V
0X
0:
b1 .
0C
00
1A
11
b1110 #
b1110 %
b1111 $
b1111 &
#950
1?
17
1a
0c
0d
b1110 !
b1110 )
0P
0`
0M
bz000 -
0Q
0S
b0 .
02
10
b1111 #
b1111 %
#960
0?
07
0>
0a
b0 !
b0 )
05
0'
0b
06
0<
0;
0U
0Z
b0z (
0_
0"
0T
0Y
0^
03
0D
0H
b0 *
0L
00
0A
0E
0I
01
0B
0F
0J
b0 #
b0 %
b0 $
b0 &
#970
1d
1b
1c
b1z (
1U
b1 !
b1 )
1P
1`
1T
1M
bz001 -
1Q
1S
b1 *
13
b1 .
12
10
b1 #
b1 %
#980
18
1?
17
05
b11 !
b11 )
1a
16
1<
0b
1Z
b10z (
0U
14
1Y
1R
bz011 -
1V
1X
1:
b11 *
1D
b11 .
1C
00
1A
11
b10 #
b10 %
b1 $
b1 &
#990
15
08
0?
07
0a
0c
0d
b100 !
b100 )
0P
0`
0M
bz010 -
0Q
0S
b10 .
02
10
b11 #
b11 %
#1000
1@
18
1?
17
15
0>
b110 !
b110 )
1a
1;
06
0<
1'
1b
1_
0Z
0=
1+
b101z (
1U
1^
1W
bz110 -
1[
1]
19
0T
1H
b110 .
1G
b110 *
03
00
0A
1E
01
1B
b100 #
b100 %
b10 $
b10 &
#1010
1d
0b
1c
b100z (
0U
b111 !
b111 )
1P
1`
1T
1M
bz111 -
1Q
1S
b111 *
13
b111 .
12
10
b101 #
b101 %
#1020
0?
07
0a
05
b1001 !
b1001 )
1>
1b
08
0@
b101z (
1U
04
0+
0R
bz101 -
0V
0X
0:
b101 .
0C
00
1A
11
b110 #
b110 %
b11 $
b11 &
#1030
1?
17
1a
0c
0d
b1010 !
b1010 )
0P
0`
0M
bz100 -
0Q
0S
b100 .
02
10
b111 #
b111 %
#1040
0?
07
0a
b1100 !
b1100 )
15
1=
0;
0b
16
1<
0_
0U
b10z (
1Z
1\
0T
0Y
1L
b1100 .
1K
03
b1100 *
0D
00
0A
0E
1I
01
0B
1F
b1000 #
b1000 %
b100 $
b100 &
#1050
1d
1b
1c
b11z (
1U
b1101 !
b1101 )
1P
1`
1T
1M
bz101 -
1Q
1S
b1101 *
13
b1101 .
12
10
b1001 #
b1001 %
#1060
1@
18
0'
1?
17
15
0=
b1111 !
b1111 )
1a
06
0<
0b
0Z
b0z (
0U
14
1+
1Y
1R
bz111 -
1V
1X
1:
b1111 *
1D
b1111 .
1C
00
1A
11
b1010 #
b1010 %
b101 $
b101 &
#1070
1"
0>
05
0@
08
0?
07
0a
0c
0d
b0 !
b0 )
0P
0`
0M
bz110 -
0Q
0S
b1110 .
02
10
b1011 #
b1011 %
#1080
18
1?
17
05
b10 !
b10 )
1a
16
1<
1b
1Z
0+
b11z (
1U
0W
bz010 -
0[
0]
09
0T
b1010 .
0G
b1110 *
03
00
0A
1E
01
1B
b1100 #
b1100 %
b110 $
b110 &
#1090
1d
0b
1c
b10z (
0U
b11 !
b11 )
1P
1`
1T
1M
bz011 -
1Q
1S
b1111 *
13
b1011 .
12
10
b1101 #
b1101 %
#1100
0?
07
0a
b101 !
b101 )
15
1b
08
b11z (
1U
04
0R
bz001 -
0V
0X
0:
b1001 .
0C
00
1A
11
b1110 #
b1110 %
b111 $
b111 &
#1110
1?
17
1a
0c
0d
b110 !
b110 )
0P
0`
0M
bz000 -
0Q
0S
b1000 .
02
10
b1111 #
b1111 %
#1120
0"
0?
07
1>
0a
b1000 !
b1000 )
05
1'
0b
06
0<
1;
0U
0Z
b100z (
1_
0T
0Y
0^
03
0D
b1000 *
0H
00
0A
0E
0I
01
0B
0F
1J
b0 #
b0 %
b1000 $
b1000 &
#1130
1d
1b
1c
b101z (
1U
b1001 !
b1001 )
1P
1`
1T
1M
bz001 -
1Q
1S
b1001 *
13
b1001 .
12
10
b1 #
b1 %
#1140
18
1?
17
05
b1011 !
b1011 )
1a
16
1<
0b
1Z
b110z (
0U
14
1Y
1R
bz011 -
1V
1X
1:
b1011 *
1D
b1011 .
1C
00
1A
11
b10 #
b10 %
b1001 $
b1001 &
#1150
15
08
0?
07
0a
0c
0d
b1100 !
b1100 )
0P
0`
0M
bz010 -
0Q
0S
b1010 .
02
10
b11 #
b11 %
#1160
0"
1@
18
1?
17
15
1>
b1110 !
b1110 )
1a
0;
06
0<
0'
1b
0_
0Z
0=
1+
b1z (
1U
1^
1W
bz110 -
1[
1]
19
0T
1H
b1110 .
1G
b1110 *
03
00
0A
1E
01
1B
b100 #
b100 %
b1010 $
b1010 &
#1170
1d
0b
1c
b0z (
0U
b1111 !
b1111 )
1P
1`
1T
1M
bz111 -
1Q
1S
b1111 *
13
b1111 .
12
10
b101 #
b101 %
#1180
1"
0?
07
0a
05
b1 !
b1 )
0>
1b
08
0@
b1z (
1U
04
0+
0R
bz101 -
0V
0X
0:
b1101 .
0C
00
1A
11
b110 #
b110 %
b1011 $
b1011 &
#1190
1?
17
1a
0c
0d
b10 !
b10 )
0P
0`
0M
bz100 -
0Q
0S
b1100 .
02
10
b111 #
b111 %
#1200
0?
07
0a
b100 !
b100 )
15
1=
1;
0b
16
1<
1_
0U
b110z (
1Z
0\
0T
0Y
b100 .
0K
03
b1100 *
0D
00
0A
0E
1I
01
0B
1F
b1000 #
b1000 %
b1100 $
b1100 &
#1210
1d
1b
1c
b111z (
1U
b101 !
b101 )
1P
1`
1T
1M
bz101 -
1Q
1S
b1101 *
13
b101 .
12
10
b1001 #
b1001 %
#1220
1@
18
1'
1?
17
15
0=
b111 !
b111 )
1a
06
0<
0b
0Z
b100z (
0U
14
1+
1Y
1R
bz111 -
1V
1X
1:
b1111 *
1D
b111 .
1C
00
1A
11
b1010 #
b1010 %
b1101 $
b1101 &
#1230
1>
05
0@
08
0?
07
0a
0c
0d
b1000 !
b1000 )
0P
0`
0M
bz110 -
0Q
0S
b110 .
02
10
b1011 #
b1011 %
#1240
18
1?
17
05
b1010 !
b1010 )
1a
16
1<
1b
1Z
0+
b111z (
1U
0W
bz010 -
0[
0]
09
0T
b10 .
0G
b1110 *
03
00
0A
1E
01
1B
b1100 #
b1100 %
b1110 $
b1110 &
#1250
1d
0b
1c
b110z (
0U
b1011 !
b1011 )
1P
1`
1T
1M
bz011 -
1Q
1S
b1111 *
13
b11 .
12
10
b1101 #
b1101 %
#1260
0?
07
0a
b1101 !
b1101 )
15
1b
08
b111z (
1U
04
0R
bz001 -
0V
0X
0:
b1 .
0C
00
1A
11
b1110 #
b1110 %
b1111 $
b1111 &
#1270
1?
17
1a
0c
0d
b1110 !
b1110 )
0P
0`
0M
bz000 -
0Q
0S
b0 .
02
10
b1111 #
b1111 %
#1280
0?
07
0>
0a
b0 !
b0 )
05
0'
0b
06
0<
0;
0U
0Z
b0z (
0_
0"
0T
0Y
0^
03
0D
0H
b0 *
0L
00
0A
0E
0I
01
0B
0F
0J
b0 #
b0 %
b0 $
b0 &
#1290
1d
1b
1c
b1z (
1U
b1 !
b1 )
1P
1`
1T
1M
bz001 -
1Q
1S
b1 *
13
b1 .
12
10
b1 #
b1 %
#1300
18
1?
17
05
b11 !
b11 )
1a
16
1<
0b
1Z
b10z (
0U
14
1Y
1R
bz011 -
1V
1X
1:
b11 *
1D
b11 .
1C
00
1A
11
b10 #
b10 %
b1 $
b1 &
#1310
15
08
0?
07
0a
0c
0d
b100 !
b100 )
0P
0`
0M
bz010 -
0Q
0S
b10 .
02
10
b11 #
b11 %
#1320
1@
18
1?
17
15
0>
b110 !
b110 )
1a
1;
06
0<
1'
1b
1_
0Z
0=
1+
b101z (
1U
1^
1W
bz110 -
1[
1]
19
0T
1H
b110 .
1G
b110 *
03
00
0A
1E
01
1B
b100 #
b100 %
b10 $
b10 &
#1330
1d
0b
1c
b100z (
0U
b111 !
b111 )
1P
1`
1T
1M
bz111 -
1Q
1S
b111 *
13
b111 .
12
10
b101 #
b101 %
